<?xml version="1.0" encoding="utf-8"?>
<!-- Generator: Adobe Illustrator 22.0.1, SVG Export Plug-In . SVG Version: 6.00 Build 0)  -->
<svg version="1.1" id="Camada_1" xmlns="http://www.w3.org/2000/svg" xmlns:xlink="http://www.w3.org/1999/xlink" x="0px" y="0px"
	 viewBox="0 0 113.4 23.9" style="enable-background:new 0 0 113.4 23.9;" xml:space="preserve">
<style type="text/css">
	.st0{fill:#FFFFFF;}
</style>
<g>
	<path class="st0" d="M23.7,15.9c3.3,0,5.9-2.6,5.9-5.9h-5.9V15.9z"/>
	<path class="st0" d="M21.7,0.1c-3.3,0-5.9,2.6-5.9,5.9h5.9v0h9.9V0.1L21.7,0.1L21.7,0.1z"/>
	<path class="st0" d="M7.9,13.9L7.9,13.9c0,3.3,2.6,5.9,5.9,5.9v-5.9h0V8H7.9V13.9z"/>
	<path class="st0" d="M15.8,11.9v5.9h0c0,3.3,2.6,5.9,5.9,5.9v-5.9h0v-5.9V8h-5.9V11.9z"/>
	<path class="st0" d="M0,10c0,3.3,2.6,5.9,5.9,5.9V10V8H0V10z"/>
	<path class="st0" d="M51.2,9c-0.2,0-0.4,0.1-0.5,0.3l-2.5,7.5l-2.4-7.4C45.7,9.1,45.6,9,45.3,9c-0.1,0-0.2,0-0.3,0.1
		c-0.1,0.1-0.2,0.2-0.2,0.3L42.4,17l-2.5-7.7c0-0.1-0.1-0.2-0.2-0.2C39.6,9,39.5,9,39.4,9c-0.3,0-0.5,0.2-0.5,0.5c0,0,0,0.1,0,0.3
		l2.9,8.7c0,0.1,0.1,0.2,0.2,0.3c0.1,0.1,0.2,0.1,0.3,0.1c0.3,0,0.4-0.1,0.5-0.3l2.4-7.6l2.5,7.6c0,0.1,0.1,0.2,0.2,0.3
		c0.1,0.1,0.2,0.1,0.3,0.1c0.1,0,0.2,0,0.3-0.1c0.1-0.1,0.2-0.1,0.2-0.3l2.9-8.7c0-0.1,0.1-0.2,0.1-0.3c0-0.1,0-0.3-0.1-0.4
		C51.5,9,51.4,9,51.2,9z"/>
	<path class="st0" d="M59.5,9.6C58.9,9.2,58.1,9,57.2,9c-0.9,0-1.7,0.2-2.4,0.6c-0.7,0.4-1.2,1-1.6,1.8c-0.4,0.7-0.6,1.6-0.6,2.6
		c0,0.9,0.2,1.8,0.6,2.5c0.4,0.7,1,1.3,1.7,1.8c0.7,0.4,1.6,0.6,2.5,0.6c0.6,0,1.1-0.1,1.7-0.3c0.6-0.2,1.1-0.5,1.5-0.9
		c0.1-0.1,0.2-0.2,0.2-0.3c0-0.1-0.1-0.3-0.2-0.4c-0.1-0.1-0.2-0.1-0.3-0.1c-0.1,0-0.3,0-0.4,0.1c-0.3,0.3-0.6,0.5-1.1,0.6
		c-0.5,0.2-0.9,0.2-1.4,0.2c-0.7,0-1.3-0.2-1.9-0.5c-0.6-0.3-1-0.7-1.3-1.3c-0.3-0.5-0.5-1.2-0.5-1.9h7.4c0.2,0,0.3,0,0.4-0.1
		c0.1-0.1,0.1-0.2,0.1-0.4c0-0.9-0.2-1.7-0.6-2.5C60.7,10.6,60.2,10,59.5,9.6z M53.8,13.3c0.1-1,0.5-1.8,1.1-2.4
		c0.6-0.6,1.4-0.9,2.3-0.9c1,0,1.7,0.3,2.4,0.9c0.6,0.6,1,1.4,1.1,2.4H53.8z"/>
	<path class="st0" d="M71.1,9.6C70.4,9.2,69.5,9,68.6,9c-0.8,0-1.6,0.2-2.3,0.5c-0.7,0.4-1.2,0.8-1.6,1.5V5.6c0-0.2-0.1-0.3-0.1-0.4
		C64.5,5.1,64.3,5,64.2,5c-0.2,0-0.3,0-0.4,0.1c-0.1,0.1-0.1,0.2-0.1,0.4V14v0c0,0.9,0.2,1.7,0.7,2.5c0.4,0.7,1,1.3,1.8,1.7
		c0.7,0.4,1.6,0.6,2.5,0.6c0.9,0,1.8-0.2,2.5-0.6c0.8-0.4,1.3-1,1.8-1.8c0.4-0.8,0.6-1.6,0.6-2.5c0-0.9-0.2-1.8-0.6-2.5
		C72.5,10.7,71.9,10.1,71.1,9.6z M72,15.9c-0.3,0.6-0.8,1.1-1.4,1.4c-0.6,0.3-1.2,0.5-2,0.5c-0.7,0-1.4-0.2-2-0.5
		c-0.6-0.3-1-0.8-1.4-1.4c-0.3-0.6-0.5-1.3-0.5-2c0-0.7,0.2-1.4,0.5-2s0.8-1.1,1.4-1.4c0.6-0.3,1.2-0.5,2-0.5c0.7,0,1.4,0.2,2,0.5
		c0.6,0.3,1.1,0.8,1.4,1.4c0.3,0.6,0.5,1.3,0.5,2C72.5,14.7,72.3,15.3,72,15.9z"/>
	<path class="st0" d="M79.3,9H77c0-0.9,0.2-1.6,0.6-2.1C77.9,6.3,78.3,6,79.2,6c0.2,0,0.3,0,0.4-0.1c0.1-0.1,0.1-0.2,0.1-0.3
		c0-0.1,0-0.3-0.1-0.3C79.5,5.1,79.3,5,79.2,5c-1.2,0-1.9,0.4-2.4,1.1c-0.6,0.7-0.9,1.9-0.9,3.1V9h-1.4c-0.1,0-0.3,0-0.3,0.1
		C74.1,9.2,74,9.3,74,9.5c0,0.1,0,0.3,0.1,0.3c0.1,0.1,0.2,0.1,0.3,0.1h1.4v8.4c0,0.2,0,0.3,0.1,0.4c0.1,0.1,0.2,0.1,0.4,0.1
		c0.2,0,0.3,0,0.4-0.1c0.1-0.1,0.1-0.2,0.1-0.4V9.9h2.3c0.1,0,0.3,0,0.3-0.1s0.1-0.2,0.1-0.3c0-0.1,0-0.3-0.1-0.3
		C79.5,9,79.4,9,79.3,9z"/>
	<path class="st0" d="M84.4,17.8H84c-0.4,0-0.7-0.2-0.9-0.5c-0.2-0.3-0.3-0.8-0.3-1.3V5.6c0-0.2,0-0.3-0.1-0.4
		C82.5,5.1,82.4,5,82.2,5c-0.2,0-0.3,0-0.4,0.1c-0.1,0.1-0.1,0.2-0.1,0.4V16c0,0.9,0.2,1.5,0.6,2.1c0.4,0.5,1,0.8,1.6,0.8h0.4
		c0.2,0,0.3,0,0.4-0.1c0.1-0.1,0.1-0.2,0.1-0.4c0-0.2,0-0.3-0.1-0.4C84.6,17.8,84.5,17.8,84.4,17.8z"/>
	<path class="st0" d="M92.9,9.6C92.2,9.2,91.3,9,90.4,9c-0.9,0-1.8,0.2-2.5,0.6c-0.8,0.4-1.3,1-1.8,1.8c-0.4,0.8-0.6,1.6-0.6,2.5
		c0,0.9,0.2,1.8,0.6,2.5c0.4,0.8,1,1.3,1.8,1.8c0.8,0.4,1.6,0.6,2.5,0.6c0.9,0,1.8-0.2,2.5-0.6c0.8-0.4,1.3-1,1.8-1.8
		c0.4-0.8,0.6-1.6,0.6-2.5c0-0.9-0.2-1.8-0.6-2.5C94.3,10.7,93.7,10.1,92.9,9.6z M93.8,15.9c-0.3,0.6-0.8,1.1-1.4,1.4
		c-0.6,0.3-1.2,0.5-2,0.5c-0.7,0-1.4-0.2-2-0.5c-0.6-0.3-1.1-0.8-1.4-1.4c-0.3-0.6-0.5-1.3-0.5-2s0.2-1.4,0.5-2
		c0.3-0.6,0.8-1.1,1.4-1.4c0.6-0.3,1.2-0.5,2-0.5c0.7,0,1.4,0.2,2,0.5c0.6,0.3,1,0.8,1.4,1.4c0.3,0.6,0.5,1.3,0.5,2
		S94.1,15.3,93.8,15.9z"/>
	<path class="st0" d="M104.7,9.6C104,9.2,103.2,9,102.2,9c-0.9,0-1.8,0.2-2.5,0.6c-0.8,0.4-1.3,1-1.8,1.8c-0.4,0.8-0.6,1.6-0.6,2.5
		c0,0.9,0.2,1.8,0.6,2.5c0.4,0.8,1,1.3,1.8,1.8c0.8,0.4,1.6,0.6,2.5,0.6c0.8,0,1.6-0.2,2.3-0.5c0.7-0.4,1.2-0.8,1.6-1.5v1.5
		c0,0.2,0,0.3,0.1,0.4c0.1,0.1,0.2,0.2,0.4,0.2c0.2,0,0.3,0,0.4-0.2c0.1-0.1,0.1-0.2,0.1-0.4v-4.4c0-0.9-0.2-1.8-0.6-2.5
		C106.1,10.7,105.5,10.1,104.7,9.6z M105.6,15.9c-0.3,0.6-0.8,1.1-1.4,1.4c-0.6,0.3-1.2,0.5-2,0.5c-0.7,0-1.4-0.2-2-0.5
		c-0.6-0.3-1.1-0.8-1.4-1.4c-0.3-0.6-0.5-1.3-0.5-2s0.2-1.4,0.5-2c0.3-0.6,0.8-1.1,1.4-1.4c0.6-0.3,1.2-0.5,2-0.5
		c0.7,0,1.4,0.2,2,0.5c0.6,0.3,1,0.8,1.4,1.4c0.3,0.6,0.5,1.3,0.5,2S105.9,15.3,105.6,15.9z"/>
	<path class="st0" d="M112.8,17.8L112.8,17.8c-0.6,0-1.2-0.2-1.6-0.6c-0.4-0.4-0.6-1-0.6-1.7V9.9h2.3c0.1,0,0.3,0,0.3-0.1
		s0.1-0.2,0.1-0.3c0-0.1,0-0.3-0.1-0.3C113.2,9,113.1,9,112.9,9h-2.3V5.6c0-0.2,0-0.3-0.1-0.4c-0.1-0.1-0.2-0.1-0.4-0.1
		c-0.2,0-0.3,0-0.4,0.1c-0.1,0.1-0.1,0.2-0.1,0.4V9h-1.4c-0.1,0-0.3,0-0.3,0.1c-0.1,0.1-0.1,0.2-0.1,0.3c0,0.1,0,0.3,0.1,0.3
		c0.1,0.1,0.2,0.1,0.3,0.1h1.4v5.6c0,0.6,0.1,1.2,0.4,1.7s0.7,0.9,1.2,1.2c0.5,0.3,1.1,0.4,1.7,0.4c0.2,0,0.3,0,0.4-0.1
		c0.1-0.1,0.1-0.2,0.1-0.4c0-0.2,0-0.3-0.1-0.4C113.1,17.8,113,17.8,112.8,17.8z"/>
</g>
</svg>
